[gd_scene load_steps=6 format=2]

[ext_resource path="res://Scenes/Game/Hud.gd" type="Script" id=1]
[ext_resource path="res://Assets/Sprites/Ui/Health.png" type="Texture" id=3]
[ext_resource path="res://Assets/Sprites/Ui/Mana.png" type="Texture" id=4]
[ext_resource path="res://Scenes/Game/Health.gd" type="Script" id=5]
[ext_resource path="res://Scenes/Game/Mana.gd" type="Script" id=6]

[node name="Hud" type="Control"]
anchor_right = 1.0
anchor_bottom = 1.0
script = ExtResource( 1 )
__meta__ = {
"_edit_use_anchors_": false
}

[node name="Health" type="TextureProgress" parent="."]
margin_left = 10.0
margin_top = 10.0
margin_right = 510.0
margin_bottom = 50.0
value = 100.0
texture_progress = ExtResource( 3 )
script = ExtResource( 5 )
__meta__ = {
"_edit_use_anchors_": false
}

[node name="Mana" type="TextureProgress" parent="."]
margin_left = 10.0
margin_top = 50.0
margin_right = 510.0
margin_bottom = 90.0
rect_scale = Vector2( 0.75, 0.75 )
value = 100.0
texture_progress = ExtResource( 4 )
script = ExtResource( 6 )
__meta__ = {
"_edit_use_anchors_": false
}
